{
	"api": "mtop.alimusic.music.list.collectservice.getcollects",
	"data": {
		"data": {
			"collects": [{
				"authorAvatar": "http://pic.xiami.net/images/avatar_new/163/2/8151338/8151338_1369468207.jpg",
				"cleanDesc": "------------------------------------------------------------------------------------------------------------------------------------------------------喜欢钢琴，不一定是古典音乐，只是单纯的喜欢。喜欢在寂静吾人的时候做在钢琴前，掀开琴盖，把手放在那光滑的琴键上，闭上眼睛……悠扬的琴声透过我的指间，像溪水一样流过。就是这样，静静欣赏着沉醉着，仿佛整个世界只有我。钢琴的纯净与清澈，让人少一分浮躁，多一分宁静。有些东西的表达不一定要用言语，在纯净的音乐声中，只要你用心去倾听，我想，你会明白，而且更清楚的明白。流行歌曲的钢琴版，感觉在钢琴的演绎下，这些歌韵生出一种独特的美。尘缘中琴声，月皎波澄。人们神怡心旷之际，耳边一阵微风忽起伏。远远传来缕缕琴声，悠悠扬扬，仿佛能与湖水产生共鸣，沧沧凉凉。一种情韵却令人回肠荡气。虽琴声如诉，所有最静好的时光，最灿烂的风霜，而或最初的模样，都缓缓流淌起来。而琴声如诉，是在过尽千帆之后，看岁月把心迹澄清，是在身隔沧海之时，沉淀所有的波澜壮阔。在懂得之后，每一个音符下，都埋藏一颗平静而柔韧的心灵。　　相遇的甜蜜、孤单的苦涩，都是你我的回忆。缤纷、透明，令人玄感沉醉的诗调，属于你的音乐情歌！带你梦回初恋、梦回家园、梦回那生命的朝露，在琴音的怀抱中甘甜休憩——纯美的钢琴声、诉尽无限。优雅的钢琴演奏，能唤回你对那些曾经爱过的地方的美好回忆…………………….....MySoulCroatianRhapsody克罗地亚狂想曲2003现场版--MaksimMrvica",
				"collectLogo": "http://pic.xiami.net/images/collect/17/17/10690017_1338864748.jpg",
				"collectName": "钢琴上的舞蹈——— Piano （壹）",
				"gmtCreate": 1333516866000,
				"gmtModify": 1483903282000,
				"listId": 10690017,
				"playCount": 967263,
				"publicStatus": 1,
				"recommend": 1,
				"songCount": 50,
				"tags": ["钢琴", "安静的午后"],
				"type": 0,
				"userId": 8151338,
				"userName": "向日葵盛开的夏天",
				"voiceStatus": 0
			}, {
				"authorAvatar": "http://pic.xiami.net/images/avatar_new/685/569bc4dfc9d41_34269119_1453049055.png",
				"cleanDesc": "收集不易，且听且珍惜",
				"collectLogo": "http://pic.xiami.net/images/collect/463/63/48866463_563050c99b4ee_uSe6_1446006985.jpg",
				"collectName": "治愈（致郁）系纯音乐",
				"gmtCreate": 1430023788000,
				"gmtModify": 1484934436000,
				"listId": 48866463,
				"playCount": 32509,
				"publicStatus": 1,
				"recommend": 0,
				"songCount": 75,
				"tags": ["纯音乐", "动漫", "治愈系音乐"],
				"type": 0,
				"userId": 34269119,
				"userName": "音无",
				"voiceStatus": 0
			}, {
				"authorAvatar": "http://pic.xiami.net/images/avatar_new/21/5a90b804d6943_1080627_1519433732.jpg",
				"cleanDesc": "八月，2013自驾旅行北上穿越美国加拿大直奔魁北克的行程开始。。。在路上。。。圣路易斯弧形拱门，是美国向西开发的一个象征。加拿大千岛湖，南岸是美国的纽约州，北岸则是加拿大的安大略省。白云追我我追白云：）魁北克翠湖山庄MontTremblant我在山顶拍的：）蒙特利尔圣母大教堂（Notre-DameBasilica）夜在路上雨在路上新奥尔良是起点。。。往北一路开→→密西西比河圣路易斯St.Louis印第安纳波利斯Indianapolis芝加哥Chicago→→多伦多Toronto渥太华Ottawa蒙特利尔Montréal魁北克市Québec。。。分享几张一路拍的照片：）——————————————————一路后摇在飞~飞飞~~",
				"collectLogo": "http://pic.xiami.net/images/collect/174/74/23713174_1377550678.jpg",
				"collectName": "且行且歌——后摇伴我横穿八月的美洲大陆",
				"gmtCreate": 1377550327000,
				"gmtModify": 1513957221000,
				"listId": 23713174,
				"playCount": 381732,
				"publicStatus": 1,
				"recommend": 1,
				"songCount": 42,
				"tags": ["横穿美洲大陆", "车载", "Post-rock"],
				"type": 0,
				"userId": 1080627,
				"userName": "天使angel",
				"voiceStatus": 0
			}, {
				"authorAvatar": "http://pic.xiami.net/images/avatar_new/1262/56f0b42fc7519_63117006_1458615343.jpg",
				"cleanDesc": "愿你享受孤独且长命百岁",
				"collectLogo": "http://img.xiami.net/images/appv5/common/31222/5954d2d637444_s7uy_1498731222.jpg",
				"collectName": "孤独，是生而为人的条件",
				"gmtCreate": 1464019106000,
				"gmtModify": 1519817387000,
				"listId": 177478751,
				"playCount": 61873,
				"publicStatus": 1,
				"recommend": 0,
				"songCount": 53,
				"tags": ["安静", "纯音乐", "节奏"],
				"type": 0,
				"userId": 63117006,
				"userName": "老斑鸠",
				"voiceStatus": 0
			}, {
				"authorAvatar": "http://pic.xiami.net/images/avatar_new/5642/58d237a626307_282146793_1490171814.jpg",
				"cleanDesc": "音乐是世界上最奇妙的东西无影无踪它给了快乐与悲伤一种极致力量音乐带着我飞翔在天地之间心境与升华的妙韵融为一体潮起潮落的心绪回归平静音符下美妙时空显现灵魂深处无限的灵性真我世界罗曼罗兰语个人的感受内心的体验除了心灵和音乐之外再不需要什么！音乐的灵魂是情感不管它的旋律还是它的节奏其实都是表达了人性中的某种情感人们通过吟唱和倾听来获得心灵的共鸣悲伤的歌也好欢快的歌也罢其实都是跟人的心情联系在一起的有情的人在听歌的时候自会把握其灵魂至于音乐承载的是什么就要看你听歌时的心境了！",
				"collectLogo": "http://img.xiami.net/images/appv5/common/16916/58d22484e256e_2wuq_1490166916.jpg",
				"collectName": "就让电音抚慰一下疲倦不堪的心",
				"gmtCreate": 1490166401000,
				"gmtModify": 1520029558000,
				"listId": 274183226,
				"playCount": 175865,
				"publicStatus": 1,
				"recommend": 1,
				"songCount": 284,
				"tags": ["电音流行", "自由", "健身"],
				"type": 0,
				"userId": 282146793,
				"userName": " ⁽⁽ଘ夜 声ଓ⁾⁾",
				"voiceStatus": 0
			}, {
				"authorAvatar": "http://pic.xiami.net/images/avatar_new/3903/585e677cac5d7_195186679_1482581884.png",
				"cleanDesc": "前奏抓耳的韩语歌，尽我可能想到的比较全的。",
				"collectLogo": "http://pic.xiami.net/images/collect/665/65/241859665_58fc45122b693_GuO4_1492927762.jpg",
				"collectName": "迅速抓耳的韩语歌",
				"gmtCreate": 1478255871000,
				"gmtModify": 1511182265000,
				"listId": 241859665,
				"playCount": 510296,
				"publicStatus": 1,
				"recommend": 0,
				"songCount": 95,
				"tags": ["韩语"],
				"type": 0,
				"userId": 195186679,
				"userName": "you-aholic✔",
				"voiceStatus": 0
			}, {
				"authorAvatar": "http://pic.xiami.net/images/avatar_new/204/10222205_1434032905.jpg",
				"cleanDesc": "闭上眼～睡觉吧。晚安。",
				"collectLogo": "http://pic.xiami.net/images/collect/560/60/137946560_56b0b918638e7_aUzX_1454422296.jpg",
				"collectName": "晚安～祝你有个好梦 ",
				"gmtCreate": 1454092236000,
				"gmtModify": 1519887667000,
				"listId": 137946560,
				"playCount": 106084,
				"publicStatus": 1,
				"recommend": 0,
				"songCount": 72,
				"tags": ["安静", "失眠"],
				"type": 0,
				"userId": 10222205,
				"userName": ".",
				"voiceStatus": 0
			}, {
				"authorAvatar": "http://pic.xiami.net/images/avatar_new/5348/59901d49cfa3a_267423045_b_w108h108.png",
				"cleanDesc": "精选暖心男声&",
				"collectLogo": "http://pic.xiami.net/images/album/img70/7370/4061621287033383.jpg",
				"collectName": "国语⋯⋯暖心男声",
				"gmtCreate": 1489581814000,
				"gmtModify": 1506783137000,
				"listId": 273785548,
				"playCount": 697979,
				"publicStatus": 1,
				"recommend": 0,
				"songCount": 31,
				"tags": ["暖心男声"],
				"type": 0,
				"userId": 267423045,
				"userName": "刘小白",
				"voiceStatus": 0
			}, {
				"authorAvatar": "http://pic.xiami.net/images/avatar_new/260/5a60bcd231cf7_13048806_1516289234.jpg",
				"cleanDesc": "♡",
				"collectLogo": "http://img.xiami.net/images/appv5/common/36362/59c9a1ba9f806_LeSa_1506386362.jpg",
				"collectName": "悠长假期",
				"gmtCreate": 1434852981000,
				"gmtModify": 1520054799000,
				"listId": 102709732,
				"playCount": 149583,
				"publicStatus": 1,
				"recommend": 0,
				"songCount": 466,
				"tags": ["好玩", "可爱", "迷人"],
				"type": 0,
				"userId": 13048806,
				"userName": "nite",
				"voiceStatus": 0
			}, {
				"authorAvatar": "http://pic.xiami.net/images/avatar_new/201/598adb9386967_10051003_b_w162h162.png",
				"cleanDesc": "我喜欢的，愿你也喜欢。这里有我一首一首精选的钢琴曲，也有舒服的英文歌，时而活泼，时而淡淡的伤感，没有太热闹，也没有太寂静。愿我喜欢的，也是你想要的。",
				"collectLogo": "http://pic.xiami.net/images/collect/824/24/241092824_5a3f92f3805d9_kfpK_1514115827.jpg",
				"collectName": "清新和温柔 日语 中文 英文 还有钢琴曲",
				"gmtCreate": 1478070849000,
				"gmtModify": 1519548147000,
				"listId": 241092824,
				"playCount": 43642,
				"publicStatus": 1,
				"recommend": 0,
				"songCount": 211,
				"tags": ["清新", "钢琴", "好听的英文歌"],
				"type": 0,
				"userId": 10051003,
				"userName": "邮箱",
				"voiceStatus": 0
			}, {
				"authorAvatar": "http://pic.xiami.net/images/avatar_new/3405/578ed74a41491_170257602_1468979018.png",
				"cleanDesc": "不听白不听~",
				"collectLogo": "http://pic.xiami.net/images/collect/860/60/226833860_57da1d2e4e654_AaoE_1473912110.jpg",
				"collectName": "旅行途中必听的英文歌曲",
				"gmtCreate": 1473902310000,
				"gmtModify": 1518363786000,
				"listId": 226833860,
				"playCount": 499157,
				"publicStatus": 1,
				"recommend": 1,
				"songCount": 55,
				"tags": ["英语"],
				"type": 0,
				"userId": 170257602,
				"userName": "錓.",
				"voiceStatus": 0
			}, {
				"authorAvatar": "http://pic.xiami.net/images/avatar_new/1439/5870734139276_71982108_1483764545.png",
				"cleanDesc": "这些歌有神经的魔力！！！当你精神不振时，一定要来听！！！",
				"collectLogo": "http://pic.xiami.net/images/collect/861/61/215720861_57b582b2e0800_gbDt_1471513266.jpg",
				"collectName": "来神经一下吧",
				"gmtCreate": 1471317232000,
				"gmtModify": 1489827200000,
				"listId": 215720861,
				"playCount": 70465,
				"publicStatus": 1,
				"recommend": 1,
				"songCount": 44,
				"tags": ["神曲"],
				"type": 0,
				"userId": 71982108,
				"userName": "远方",
				"voiceStatus": 0
			}, {
				"authorAvatar": "http://pic.xiami.net/images/avatar_new/194/5a2c7b72ac078_9746703_1512864626.jpg",
				"cleanDesc": "打开随机播放让饶舌教会你去爱peace&love.",
				"collectLogo": "http://pic.xiami.net/images/collect/322/22/102986322_55e532160c7a4_5Opg_1441083926.jpg",
				"collectName": "哦哟哟哟哟哟",
				"gmtCreate": 1436585949000,
				"gmtModify": 1519730274000,
				"listId": 102986322,
				"playCount": 269321,
				"publicStatus": 1,
				"recommend": 0,
				"songCount": 315,
				"tags": ["嘻哈", "说唱"],
				"type": 0,
				"userId": 9746703,
				"userName": "大魔王XX",
				"voiceStatus": 0
			}, {
				"authorAvatar": "http://pic.xiami.net/images/avatar_new/4582/59cf35d979faa_229135264_b_w162h162_face_w162h162_x46y22w57h80c1.png",
				"cleanDesc": "我们离回忆太近，离自由太远。有时候念念不忘，只是爱上回忆！",
				"collectLogo": "http://pic.xiami.net/images/collect/180/80/277561180_5a3c8c09ba0b0_O3Is_1513917449.jpg",
				"collectName": "回忆录",
				"gmtCreate": 1490700853000,
				"gmtModify": 1518654783000,
				"listId": 277561180,
				"playCount": 1964828,
				"publicStatus": 1,
				"recommend": 0,
				"songCount": 542,
				"tags": ["90s", "回忆", "经典"],
				"type": 0,
				"userId": 229135264,
				"userName": "蜗牛带我去散步",
				"voiceStatus": 0
			}, {
				"authorAvatar": "http://pic.xiami.net/images/avatar_new/1015/59e6cb08b2e06_50752165_b_w162h162_face_w162h162_x46y27w56h74c1.png",
				"cleanDesc": "一些深夜情话",
				"collectLogo": "http://pic.xiami.net/images/collect/696/96/162642696_571ba7e6c7ad8_swuK_1461430246.jpg",
				"collectName": "循环播放的love song❤",
				"gmtCreate": 1461393126000,
				"gmtModify": 1518969840000,
				"listId": 162642696,
				"playCount": 229548,
				"publicStatus": 1,
				"recommend": 1,
				"songCount": 143,
				"tags": ["纯音乐", "爱情", "节奏"],
				"type": 0,
				"userId": 50752165,
				"userName": "飞LAN",
				"voiceStatus": 0
			}, {
				"authorAvatar": "http://pic.xiami.net/images/default/avatar_f.jpg",
				"cleanDesc": "⭐⭐⭐雨停，风静，给你一片青天白云☁静听，听非凡music",
				"collectLogo": "http://pic.xiami.net/images/collect_pic/09-16/1442333892_Y1ak.jpg",
				"collectName": "淡然似水，千杯不醉",
				"gmtCreate": 1442308212000,
				"gmtModify": 1483773396000,
				"listId": 117448340,
				"playCount": 16527,
				"publicStatus": 1,
				"recommend": 0,
				"songCount": 442,
				"tags": ["舒缓", "流行", "睡眠", "旅行", "清新"],
				"type": 0,
				"userId": 53284685,
				"userName": "妖孽丶神兔子",
				"voiceStatus": 0
			}, {
				"authorAvatar": "http://pic.xiami.net/images/avatar_new/824/5a72d1b428d54_41211181_1517474228.jpg",
				"cleanDesc": "「SMSTATION」为SM娱乐跳脱传统专辑发行方式，以1年52周，每周推出全新数位单曲，并透过与多方艺人、制作人、作曲家合作，进行品牌与品牌之间交流，发行音乐作品的计划。李秀满表示：1年52周，每周都有多样好听的歌曲等着大家，希望能如『STATION』这个名字，让大家往返于站跟站之间，体验全新的音乐。2017年2月，S.M.Entertainment宣布将于3月开启SMSTATION第二季，合作范畴将拓展至全球范围。SMTheBallad、SMThePerformance、SMSummerVacation、SMWinterGarden等大众反响不错的项目也将通过STATION再次呈现。",
				"collectLogo": "http://pic.xiami.net/images/collect/548/48/266615548_1511148010_yUgd.jpg",
				"collectName": "【持更中】SM STATION 两季",
				"gmtCreate": 1486526549000,
				"gmtModify": 1519998648000,
				"listId": 266615548,
				"playCount": 146198,
				"publicStatus": 1,
				"recommend": 1,
				"songCount": 115,
				"tags": ["韩语流行", "sm", "station"],
				"type": 0,
				"userId": 41211181,
				"userName": "Taelove15",
				"voiceStatus": 0
			}, {
				"authorAvatar": "http://pic.xiami.net/images/avatar_new/280/5a4fe36f259b8_14006906_1515185007.jpg",
				"cleanDesc": "随机",
				"collectLogo": "http://pic.xiami.net/images/collect/830/30/103340830_57f140ee9a801_uV5V_1475428590.jpg",
				"collectName": " 安        晚",
				"gmtCreate": 1435612403000,
				"gmtModify": 1519759802000,
				"listId": 103340830,
				"playCount": 40344,
				"publicStatus": 1,
				"recommend": 0,
				"songCount": 1428,
				"tags": ["睡眠", "英语", "睡前曲"],
				"type": 0,
				"userId": 14006906,
				"userName": "屁桃",
				"voiceStatus": 0
			}, {
				"authorAvatar": "http://pic.xiami.net/images/avatar_new/4012/5a73097c5a414_200613155_1517488508.jpg",
				"cleanDesc": "做橙光游戏，优先考虑橙光的背景音乐我会不定期的添加或者将不合适的歌曲移出去，谢谢支持。恭喜歌单歌曲破一千，多半歌曲比较适合真人区，等真人区下架后（可能），我会对歌单进行一个合适的更改，如果有意见可以评论或者私信哦",
				"collectLogo": "http://pic.xiami.net/images/collect/45/45/257694045_1487265773_tqP8.jpeg",
				"collectName": "橙光游戏常用背景音乐",
				"gmtCreate": 1484667757000,
				"gmtModify": 1502731688000,
				"listId": 257694045,
				"playCount": 49552,
				"publicStatus": 1,
				"recommend": 0,
				"songCount": 1004,
				"tags": ["游戏音乐", "橙光游戏"],
				"type": 0,
				"userId": 200613155,
				"userName": "왕래하다",
				"voiceStatus": 0
			}, {
				"authorAvatar": "http://pic.xiami.net/images/avatar_new/670/56c158bc23aec_33525030_1455511740.jpg",
				"cleanDesc": "HM店铺门店.音乐",
				"collectLogo": "http://pic.xiami.net/images/collect/134/34/32615134_1406862617_sg2b.jpg",
				"collectName": "hm店铺音乐part 1",
				"gmtCreate": 1404145729000,
				"gmtModify": 1491095320000,
				"listId": 32615134,
				"playCount": 272819,
				"publicStatus": 1,
				"recommend": 0,
				"songCount": 1579,
				"tags": ["hm音乐"],
				"type": 0,
				"userId": 33525030,
				"userName": "雨天不打伞",
				"voiceStatus": 0
			}],
			"more": true,
			"pagingVO": {
				"count": 1000,
				"page": 1,
				"pageSize": 20,
				"pages": 50
			},
			"total": 1000
		},
		"header": {
			"traceId": "0be42d4815200772654811933e78fa",
			"version": 1
		}
	},
	"ret": ["SUCCESS::调用成功"],
	"v": "1.0"
}